{
    "id": "org.kde.vvave",
    "branch": "master",
    "rename-icon": "vvave",
    "runtime": "org.kde.Platform",
    "runtime-version": "5.12",
    "sdk": "org.kde.Sdk",
    "command": "vvave",
    "tags": ["nightly"],
    "desktop-file-name-suffix": " (Nightly)",
    "finish-args": ["--share=ipc", "--socket=x11", "--socket=wayland", "--filesystem=host", "--socket=pulseaudio", "--socket=session-bus", "--share=network" ],

    "modules": [
        {
            "name": "taglib",
            "buildsystem": "cmake-ninja",
            "sources": [
                {
                    "type": "archive",
                    "url": "http://taglib.github.io/releases/taglib-1.11.1.tar.gz",
                    "sha256": "b6d1a5a610aae6ff39d93de5efd0fdc787aa9e9dc1e7026fa4c961b26563526b"
                }
            ]
        },
        {
            "name": "mauikit",
            "buildsystem": "cmake-ninja",
            "sources": [
                { "type": "git", "url": "git://anongit.kde.org/mauikit.git" }
            ]
        },
        {
            "name": "vvave",
            "buildsystem": "cmake-ninja",
            "config-opts": [ "-DCMAKE_EXE_LINKER_FLAGS=-lz" ],
            "sources": [
                { "type": "git", "url": "git://anongit.kde.org/vvave.git" }
            ]
        }
    ]
}
