{
    "id": "org.kde.konversation-konvi2x",
    "rename-desktop-file": "org.kde.konversation.desktop",
    "branch": "master",
    "runtime": "org.kde.Platform",
    "runtime-version": "5.12",
    "sdk": "org.kde.Sdk",
    "command": "konversation",
    "tags": ["nightly"],
    "desktop-file-name-suffix": " (Konvi2x, Nightly)",
    "finish-args": ["--share=ipc", "--share=network", "--socket=x11", "--socket=wayland", "--device=dri",
                    "--talk-name=org.kde.StatusNotifierWatcher", "--talk-name=org.freedesktop.Notifications" ],
    "separate-locales": false,

    "modules": [
        {
            "name": "konversation-konvi2x",
            "buildsystem": "cmake-ninja",
            "config-opts": ["-DCMAKE_BUILD_TYPE=debug"],
            "sources": [ { "type": "git", "url": "git://anongit.kde.org/konversation.git", "branch": "wip/qtquick" } ]
        }
    ]
}
